{dplyr} version 1.0.0
…
 and I am going to tell you all about it

Note: these slides are available here (as rmarkdown or HTML document): https://github.com/courtiol/Rcourses

Preambule

Lets prepare some data for us to use during this session:

(iris_tbl <- tibble::as_tibble(iris)) ## turn the data into tibble for better display

## # A tibble: 150 x 5
##    Sepal.Length Sepal.Width Petal.Length Petal.Width Species
##           <dbl>       <dbl>        <dbl>       <dbl> <fct>  
##  1          5.1         3.5          1.4         0.2 setosa 
##  2          4.9         3            1.4         0.2 setosa 
##  3          4.7         3.2          1.3         0.2 setosa 
##  4          4.6         3.1          1.5         0.2 setosa 
##  5          5           3.6          1.4         0.2 setosa 
##  6          5.4         3.9          1.7         0.4 setosa 
##  7          4.6         3.4          1.4         0.3 setosa 
##  8          5           3.4          1.5         0.2 setosa 
##  9          4.4         2.9          1.4         0.2 setosa 
## 10          4.9         3.1          1.5         0.1 setosa 
## #  with 140 more rows
…
Major releases also tend to come with exciting new features

Note: {dplyr} version 0.9 has never existed!

Improvements in existing functions

Better select() thanks to {tidyselect} 1.1.0

select() benefits from recent {tidyselect} improvements: it can take vectors, predicates (something returning TRUE or FALSE), and selection helpers leading to vectors:

iris_tbl %>%
  select(starts_with("Petal") & ends_with("Width")) ## new support of boolean operators

## # A tibble: 150 x 1
##    Petal.Width
##          <dbl>
##  1         0.2
##  2         0.2
##  3         0.2
##  4         0.2
##  5         0.2
##  6         0.4
##  7         0.3
##  8         0.2
##  9         0.2
## 10         0.1
## #  with 140 more rows

Better select() thanks to {tidyselect} 1.1.0

select() benefits from recent {tidyselect} improvements: it can take vectors, predicates (something returning TRUE or FALSE), and selection helpers leading to vectors:

iris_tbl %>%
  select(where(is.numeric)) ## a brand new selection helper!

## # A tibble: 150 x 4
##    Sepal.Length Sepal.Width Petal.Length Petal.Width
##           <dbl>       <dbl>        <dbl>       <dbl>
##  1          5.1         3.5          1.4         0.2
##  2          4.9         3            1.4         0.2
##  3          4.7         3.2          1.3         0.2
##  4          4.6         3.1          1.5         0.2
##  5          5           3.6          1.4         0.2
##  6          5.4         3.9          1.7         0.4
##  7          4.6         3.4          1.4         0.3
##  8          5           3.4          1.5         0.2
##  9          4.4         2.9          1.4         0.2
## 10          4.9         3.1          1.5         0.1
## #  with 140 more rows

Better select() thanks to {tidyselect} 1.1.0

select() benefits from recent {tidyselect} improvements: it can take vectors, predicates (something returning TRUE or FALSE), and selection helpers leading to vectors:

iris_tbl %>%
  select(where(~ is.numeric(.x) && mean(.x) > 3.5))  ## where() understands purrr-like formulas

## # A tibble: 150 x 2
##    Sepal.Length Petal.Length
##           <dbl>        <dbl>
##  1          5.1          1.4
##  2          4.9          1.4
##  3          4.7          1.3
##  4          4.6          1.5
##  5          5            1.4
##  6          5.4          1.7
##  7          4.6          1.4
##  8          5            1.5
##  9          4.4          1.4
## 10          4.9          1.5
## #  with 140 more rows
…
Note: they should remain in future versions of {dplyr} as we will discuss in the context of {lifecycle}

Better mutate()

mutate() can now add a new column wherever you want:

iris_tbl %>%
  mutate(Sepal.Length.mm = 10 * Sepal.Length, .after = Sepal.Length) ## there is also .before

## # A tibble: 150 x 6
##    Sepal.Length Sepal.Length.mm Sepal.Width Petal.Length Petal.Width Species
##           <dbl>           <dbl>       <dbl>        <dbl>       <dbl> <fct>  
##  1          5.1              51         3.5          1.4         0.2 setosa 
##  2          4.9              49         3            1.4         0.2 setosa 
##  3          4.7              47         3.2          1.3         0.2 setosa 
##  4          4.6              46         3.1          1.5         0.2 setosa 
##  5          5                50         3.6          1.4         0.2 setosa 
##  6          5.4              54         3.9          1.7         0.4 setosa 
##  7          4.6              46         3.4          1.4         0.3 setosa 
##  8          5                50         3.4          1.5         0.2 setosa 
##  9          4.4              44         2.9          1.4         0.2 setosa 
## 10          4.9              49         3.1          1.5         0.1 setosa 
## #  with 140 more rows

Better mutate()

mutate() can now keep some columns and not all:

iris_tbl %>%
  mutate(Sepal.Length.mm = 10 * Sepal.Length, .keep = "used")  ## also "all", "unused" or "none" 

## # A tibble: 150 x 2
##    Sepal.Length Sepal.Length.mm
##           <dbl>           <dbl>
##  1          5.1              51
##  2          4.9              49
##  3          4.7              47
##  4          4.6              46
##  5          5                50
##  6          5.4              54
##  7          4.6              46
##  8          5                50
##  9          4.4              44
## 10          4.9              49
## #  with 140 more rows

Note: keeping "none" is the same as using transmute()

Better mutate()

mutate() can now handle multiple columns without nesting:

my_range <- function(x) tibble("{{x}}_min" := min(x), "{{x}}_max" := max(x)) ## I use {glue} syntax here

iris_tbl %>%
  mutate(my_range(Sepal.Length))

## # A tibble: 150 x 7
##    Sepal.Length Sepal.Width Petal.Length Petal.Width Species Sepal.Length_min Sepal.Length_max
##           <dbl>       <dbl>        <dbl>       <dbl> <fct>              <dbl>            <dbl>
##  1          5.1         3.5          1.4         0.2 setosa               4.3              7.9
##  2          4.9         3            1.4         0.2 setosa               4.3              7.9
##  3          4.7         3.2          1.3         0.2 setosa               4.3              7.9
##  4          4.6         3.1          1.5         0.2 setosa               4.3              7.9
##  5          5           3.6          1.4         0.2 setosa               4.3              7.9
##  6          5.4         3.9          1.7         0.4 setosa               4.3              7.9
##  7          4.6         3.4          1.4         0.3 setosa               4.3              7.9
##  8          5           3.4          1.5         0.2 setosa               4.3              7.9
##  9          4.4         2.9          1.4         0.2 setosa               4.3              7.9
## 10          4.9         3.1          1.5         0.1 setosa               4.3              7.9
## #  with 140 more rows

Better mutate()

mutate() can now handle multiple columns without nesting

but you can still nest output if you want by simply using list():

iris_tbl %>%
  mutate(range = list(my_range(Sepal.Length)))

## # A tibble: 150 x 6
##    Sepal.Length Sepal.Width Petal.Length Petal.Width Species range           
##           <dbl>       <dbl>        <dbl>       <dbl> <fct>   <list>          
##  1          5.1         3.5          1.4         0.2 setosa  <tibble [1  2]>
##  2          4.9         3            1.4         0.2 setosa  <tibble [1  2]>
##  3          4.7         3.2          1.3         0.2 setosa  <tibble [1  2]>
##  4          4.6         3.1          1.5         0.2 setosa  <tibble [1  2]>
##  5          5           3.6          1.4         0.2 setosa  <tibble [1  2]>
##  6          5.4         3.9          1.7         0.4 setosa  <tibble [1  2]>
##  7          4.6         3.4          1.4         0.3 setosa  <tibble [1  2]>
##  8          5           3.4          1.5         0.2 setosa  <tibble [1  2]>
##  9          4.4         2.9          1.4         0.2 setosa  <tibble [1  2]>
## 10          4.9         3.1          1.5         0.1 setosa  <tibble [1  2]>
## #  with 140 more rows

Better mutate()

mutate() can apply one function of several columns using across():

iris_tbl %>%
  mutate(across(where(is.numeric), ~ .x * 100, .names = "{col}_mm"), .keep = "none")

## # A tibble: 150 x 4
##    Sepal.Length_mm Sepal.Width_mm Petal.Length_mm Petal.Width_mm
##              <dbl>          <dbl>           <dbl>          <dbl>
##  1            510.            350             140             20
##  2            490.            300             140             20
##  3            470             320             130             20
##  4            460.            310             150             20
##  5            500             360             140             20
##  6            540             390             170             40
##  7            460.            340             140             30
##  8            500             340             150             20
##  9            440.            290             140             20
## 10            490.            310             150             10
## #  with 140 more rows
…
Note: the argument keep has no effect in this case

Brand new functions

New rename_with()

rename_with() applies a renaming function to selected columns:

iris_tbl %>%
  rename_with(toupper) ## all columns (selected by default)

## # A tibble: 150 x 5
##    SEPAL.LENGTH SEPAL.WIDTH PETAL.LENGTH PETAL.WIDTH SPECIES
##           <dbl>       <dbl>        <dbl>       <dbl> <fct>  
##  1          5.1         3.5          1.4         0.2 setosa 
##  2          4.9         3            1.4         0.2 setosa 
##  3          4.7         3.2          1.3         0.2 setosa 
##  4          4.6         3.1          1.5         0.2 setosa 
##  5          5           3.6          1.4         0.2 setosa 
##  6          5.4         3.9          1.7         0.4 setosa 
##  7          4.6         3.4          1.4         0.3 setosa 
##  8          5           3.4          1.5         0.2 setosa 
##  9          4.4         2.9          1.4         0.2 setosa 
## 10          4.9         3.1          1.5         0.1 setosa 
## #  with 140 more rows

New rename_with()

rename_with() applies a renaming function to selected columns:

iris_tbl %>%
  rename_with(toupper, !Sepal.Length) ## all columns but Sepal.Length

## # A tibble: 150 x 5
##    Sepal.Length SEPAL.WIDTH PETAL.LENGTH PETAL.WIDTH SPECIES
##           <dbl>       <dbl>        <dbl>       <dbl> <fct>  
##  1          5.1         3.5          1.4         0.2 setosa 
##  2          4.9         3            1.4         0.2 setosa 
##  3          4.7         3.2          1.3         0.2 setosa 
##  4          4.6         3.1          1.5         0.2 setosa 
##  5          5           3.6          1.4         0.2 setosa 
##  6          5.4         3.9          1.7         0.4 setosa 
##  7          4.6         3.4          1.4         0.3 setosa 
##  8          5           3.4          1.5         0.2 setosa 
##  9          4.4         2.9          1.4         0.2 setosa 
## 10          4.9         3.1          1.5         0.1 setosa 
## #  with 140 more rows

New rename_with()

rename_with() applies a renaming function to selected columns:

iris_tbl %>%
  rename_with(toupper, where(is.numeric)) ## all numerical columns

## # A tibble: 150 x 5
##    SEPAL.LENGTH SEPAL.WIDTH PETAL.LENGTH PETAL.WIDTH Species
##           <dbl>       <dbl>        <dbl>       <dbl> <fct>  
##  1          5.1         3.5          1.4         0.2 setosa 
##  2          4.9         3            1.4         0.2 setosa 
##  3          4.7         3.2          1.3         0.2 setosa 
##  4          4.6         3.1          1.5         0.2 setosa 
##  5          5           3.6          1.4         0.2 setosa 
##  6          5.4         3.9          1.7         0.4 setosa 
##  7          4.6         3.4          1.4         0.3 setosa 
##  8          5           3.4          1.5         0.2 setosa 
##  9          4.4         2.9          1.4         0.2 setosa 
## 10          4.9         3.1          1.5         0.1 setosa 
## #  with 140 more rows

New relocate()

You can now move existing columns in tables easily:

iris_tbl %>%
  relocate(Species, 1) ## you can also use .before & .after as in mutate

## # A tibble: 150 x 5
##    Species Sepal.Length Sepal.Width Petal.Length Petal.Width
##    <fct>          <dbl>       <dbl>        <dbl>       <dbl>
##  1 setosa           5.1         3.5          1.4         0.2
##  2 setosa           4.9         3            1.4         0.2
##  3 setosa           4.7         3.2          1.3         0.2
##  4 setosa           4.6         3.1          1.5         0.2
##  5 setosa           5           3.6          1.4         0.2
##  6 setosa           5.4         3.9          1.7         0.4
##  7 setosa           4.6         3.4          1.4         0.3
##  8 setosa           5           3.4          1.5         0.2
##  9 setosa           4.4         2.9          1.4         0.2
## 10 setosa           4.9         3.1          1.5         0.1
## #  with 140 more rows
…
New across()

We have seen it before: it allows for mutation and summary on multiple columns.

New c_across()

c_across() allows you to apply function across rows:

iris[cbind(c(1, 1:4), c(2, 1:4))] <- NA ## Add some NAs
iris %>% as_tibble() -> iris_tbl2
iris_tbl2 %>%
  mutate(number_NA = sum(is.na(c_across(where(is.numeric))))) ## total NAs across all rows

## # A tibble: 150 x 6
##    Sepal.Length Sepal.Width Petal.Length Petal.Width Species number_NA
##           <dbl>       <dbl>        <dbl>       <dbl> <fct>       <int>
##  1         NA          NA            1.4         0.2 setosa          5
##  2          4.9        NA            1.4         0.2 setosa          5
##  3          4.7         3.2         NA           0.2 setosa          5
##  4          4.6         3.1          1.5        NA   setosa          5
##  5          5           3.6          1.4         0.2 setosa          5
##  6          5.4         3.9          1.7         0.4 setosa          5
##  7          4.6         3.4          1.4         0.3 setosa          5
##  8          5           3.4          1.5         0.2 setosa          5
##  9          4.4         2.9          1.4         0.2 setosa          5
## 10          4.9         3.1          1.5         0.1 setosa          5
## #  with 140 more rows

New c_across()

c_across() allows you to apply function across rows:

iris_tbl2 %>%
  rowwise() %>%
  mutate(number_NA = sum(is.na(c_across(where(is.numeric)))))  ## total NAs across each row

## # A tibble: 150 x 6
## # Rowwise: 
##    Sepal.Length Sepal.Width Petal.Length Petal.Width Species number_NA
##           <dbl>       <dbl>        <dbl>       <dbl> <fct>       <int>
##  1         NA          NA            1.4         0.2 setosa          2
##  2          4.9        NA            1.4         0.2 setosa          1
##  3          4.7         3.2         NA           0.2 setosa          1
##  4          4.6         3.1          1.5        NA   setosa          1
##  5          5           3.6          1.4         0.2 setosa          0
##  6          5.4         3.9          1.7         0.4 setosa          0
##  7          4.6         3.4          1.4         0.3 setosa          0
##  8          5           3.4          1.5         0.2 setosa          0
##  9          4.4         2.9          1.4         0.2 setosa          0
## 10          4.9         3.1          1.5         0.1 setosa          0
## #  with 140 more rows

Note: it is no longer the plan to discontinue rowwise()!

New function to fiddle with rows

There is an entire family that has been introduced to fiddle with rows (insert, delete, modify) but it is very fresh and still poorly documented:

iris_tbl %>%
  mutate(row = 1:n()) %>%
  rows_delete(tibble(row = 3:50))

## Matching, by = "row"

## # A tibble: 102 x 6
##    Sepal.Length Sepal.Width Petal.Length Petal.Width Species      row
##           <dbl>       <dbl>        <dbl>       <dbl> <fct>      <int>
##  1          5.1         3.5          1.4         0.2 setosa         1
##  2          4.9         3            1.4         0.2 setosa         2
##  3          7           3.2          4.7         1.4 versicolor    51
##  4          6.4         3.2          4.5         1.5 versicolor    52
##  5          6.9         3.1          4.9         1.5 versicolor    53
##  6          5.5         2.3          4           1.3 versicolor    54
##  7          6.5         2.8          4.6         1.5 versicolor    55
##  8          5.7         2.8          4.5         1.3 versicolor    56
##  9          6.3         3.3          4.7         1.6 versicolor    57
## 10          4.9         2.4          3.3         1   versicolor    58
## #  with 92 more rows
…
What is {tidyselect}?

It is the package that provided all the select helper for {dplyr}:

iris_tbl %>%
  select(tidyselect::contains("Length"))

## # A tibble: 150 x 2
##    Sepal.Length Petal.Length
##           <dbl>        <dbl>
##  1          5.1          1.4
##  2          4.9          1.4
##  3          4.7          1.3
##  4          4.6          1.5
##  5          5            1.4
##  6          5.4          1.7
##  7          4.6          1.4
##  8          5            1.5
##  9          4.4          1.4
## 10          4.9          1.5
## #  with 140 more rows
…
Why {vctrs}?

to simplify tremendously the underlying code

to support custom data structures properly

Example: we want to sort the following tibble by the package version

(map_df(tidyverse_packages(), ~ set_names(packageVersion(.x), nm = "version")) %>%
  mutate(pkg = tidyverse_packages(), .before = 1) -> pkg_tbl)

## # A tibble: 27 x 2
##    pkg     version   
##    <chr>   <pckg_vrs>
##  1 broom   0.5.6     
##  2 cli     2.0.2     
##  3 crayon  1.3.4     
##  4 dbplyr  1.4.4     
##  5 dplyr   1.0.0     
##  6 forcats 0.5.0     
##  7 ggplot2 3.3.1     
##  8 haven   2.3.1     
##  9 hms     0.5.3     
## 10 httr    1.4.1     
## #  with 17 more rows
…
Note: developers should do such things (not you!), if they want {dplyr} to understand their particular classes

Why {vctrs}?

to simplify tremendously the underlying code

to support custom data structures properly

Example: now the sorting works!

map_df(tidyverse_packages(), ~ set_names(packageVersion(.x), nm = "version")) %>%
  mutate(pkg = tidyverse_packages(), .before = 1) %>%
  arrange(desc(version))

## # A tibble: 27 x 2
##    pkg       version   
##    <chr>     <pckg_vrs>
##  1 ggplot2   3.3.1     
##  2 tibble    3.0.1     
##  3 haven     2.3.1     
##  4 cli       2.0.2     
##  5 lubridate 1.7.8     
##  6 jsonlite  1.6.1     
##  7 magrittr  1.5       
##  8 pillar    1.4.4     
##  9 dbplyr    1.4.4     
## 10 httr      1.4.1     
## #  with 17 more rows
…
